…
#view the cleaned up dataset
print(zooplankton_biomass_cleaned)
```

    ## # A tibble: 11,621 × 38
    ##    region_name       year  time_period Polychaeta Amphipoda Cirripedia Cladocera
    ##    <chr>             <chr> <chr>            <dbl>     <dbl>      <dbl>     <dbl>
    ##  1 Alaska Basin East 1980  Pre Heat W…     1.32       0.123          0         0
    ##  2 Alaska Basin East 1980  Pre Heat W…     0.0233     0.513          0         0
    ##  3 Alaska Basin East 1980  Pre Heat W…     0          0              0         0
    ##  4 Alaska Basin East 1980  Pre Heat W…     0          0              0         0
    ##  5 Alaska Basin East 1980  Pre Heat W…     0.120      0              0         0
    ##  6 Alaska Basin East 1980  Pre Heat W…     0          0              0         0
    ##  7 Alaska Basin East 1980  Pre Heat W…     0          0              0         0
    ##  8 Alaska Basin East 1980  Pre Heat W…     0.120      0              0         0
    ##  9 Alaska Basin East 1980  Pre Heat W…     0          0.205          0         0
    ## 10 Alaska Basin East 1980  Pre Heat W…     0.120      0.421          0         0
    ## # … with 11,611 more rows, and 31 more variables: Copepoda <dbl>,
    ## #   Cumacea <dbl>, Anomura <dbl>, Brachyura <dbl>, Caridea <dbl>,
    ## #   Pleocyemata <dbl>, Euphausiacea <dbl>, Isopoda <dbl>, Mysida <dbl>,
    ## #   Ostracoda <dbl>, Bryozoa <dbl>, Chaetognatha <dbl>, Anthozoa <dbl>,
    ## #   Hydromedusa <dbl>, Siphonophora <dbl>, Scyphozoa <dbl>, Ctenophora <dbl>,
    ## #   Echinodermata <dbl>, Bivalva <dbl>, Cephalopoda <dbl>, Gastropoda <dbl>,
    ## #   Pteropoda <dbl>, Nemertea <dbl>, Phoronida <dbl>, Pisces <dbl>, …
…
#view the new dataset
print(zooplankton_funct)
```

    ## # A tibble: 11,621 × 38
    ##    region_name       year  `Time Period` `Polychaeta Proport… `Amphipoda Propor…
    ##    <chr>             <chr> <chr>                        <dbl>              <dbl>
    ##  1 Alaska Basin East 1980  Pre Heat Wave             0.0161              0.00150
    ##  2 Alaska Basin East 1980  Pre Heat Wave             0.000787            0.0174 
    ##  3 Alaska Basin East 1980  Pre Heat Wave             0                   0      
    ##  4 Alaska Basin East 1980  Pre Heat Wave             0                   0      
    ##  5 Alaska Basin East 1980  Pre Heat Wave             0.00580             0      
    ##  6 Alaska Basin East 1980  Pre Heat Wave             0                   0      
    ##  7 Alaska Basin East 1980  Pre Heat Wave             0                   0      
    ##  8 Alaska Basin East 1980  Pre Heat Wave             0.00337             0      
    ##  9 Alaska Basin East 1980  Pre Heat Wave             0                   0.00720
    ## 10 Alaska Basin East 1980  Pre Heat Wave             0.00519             0.0183 
    ## # … with 11,611 more rows, and 33 more variables:
    ## #   Cirripedia Proportion of Total Biomass <dbl>,
    ## #   Cladocera Proportion of Total Biomass <dbl>,
    ## #   Copepoda Proportion of Total Biomass <dbl>,
    ## #   Cumacea Proportion of Total Biomass <dbl>,
    ## #   Anomura Proportion of Total Biomass <dbl>,
    ## #   Brachyura Proportion of Total Biomass <dbl>, …
…
